%YAML 1.1
%TAG !u! tag:unity3d.com,2011:
--- !u!1 &1029105726400123295
GameObject:
  m_ObjectHideFlags: 0
  m_CorrespondingSourceObject: {fileID: 0}
  m_PrefabInstance: {fileID: 0}
  m_PrefabAsset: {fileID: 0}
  serializedVersion: 6
  m_Component:
  - component: {fileID: 6247262032607842101}
  m_Layer: 0
  m_Name: chair3ghost
  m_TagString: Untagged
  m_Icon: {fileID: 0}
  m_NavMeshLayer: 0
  m_StaticEditorFlags: 0
  m_IsActive: 1
--- !u!4 &6247262032607842101
Transform:
  m_ObjectHideFlags: 0
  m_CorrespondingSourceObject: {fileID: 0}
  m_PrefabInstance: {fileID: 0}
  m_PrefabAsset: {fileID: 0}
  m_GameObject: {fileID: 1029105726400123295}
  m_LocalRotation: {x: 0, y: 0, z: 0, w: 1}
  m_LocalPosition: {x: 0, y: 0, z: 0}
  m_LocalScale: {x: 1, y: 1, z: 1}
  m_Children:
  - {fileID: 5917605398064100778}
  m_Father: {fileID: 0}
  m_RootOrder: 0
  m_LocalEulerAnglesHint: {x: 0, y: 0, z: 0}
--- !u!1001 &6166896548672574017
PrefabInstance:
  m_ObjectHideFlags: 0
  serializedVersion: 2
  m_Modification:
    m_TransformParent: {fileID: 6247262032607842101}
    m_Modifications:
    - target: {fileID: -8679921383154817045, guid: f2b0978a2f3a60491903ffe932b2270b,
        type: 3}
      propertyPath: m_RootOrder
      value: 0
      objectReference: {fileID: 0}
    - target: {fileID: -8679921383154817045, guid: f2b0978a2f3a60491903ffe932b2270b,
        type: 3}
      propertyPath: m_LocalPosition.x
      value: 0
      objectReference: {fileID: 0}
    - target: {fileID: -8679921383154817045, guid: f2b0978a2f3a60491903ffe932b2270b,
        type: 3}
      propertyPath: m_LocalPosition.y
      value: 0
      objectReference: {fileID: 0}
    - target: {fileID: -8679921383154817045, guid: f2b0978a2f3a60491903ffe932b2270b,
        type: 3}
      propertyPath: m_LocalPosition.z
      value: 0
      objectReference: {fileID: 0}
    - target: {fileID: -8679921383154817045, guid: f2b0978a2f3a60491903ffe932b2270b,
        type: 3}
      propertyPath: m_LocalRotation.w
      value: 1
      objectReference: {fileID: 0}
    - target: {fileID: -8679921383154817045, guid: f2b0978a2f3a60491903ffe932b2270b,
        type: 3}
      propertyPath: m_LocalRotation.x
      value: -0
      objectReference: {fileID: 0}
    - target: {fileID: -8679921383154817045, guid: f2b0978a2f3a60491903ffe932b2270b,
        type: 3}
      propertyPath: m_LocalRotation.y
      value: -0
      objectReference: {fileID: 0}
    - target: {fileID: -8679921383154817045, guid: f2b0978a2f3a60491903ffe932b2270b,
        type: 3}
      propertyPath: m_LocalRotation.z
      value: -0
      objectReference: {fileID: 0}
    - target: {fileID: -8679921383154817045, guid: f2b0978a2f3a60491903ffe932b2270b,
        type: 3}
      propertyPath: m_LocalEulerAnglesHint.x
      value: 0
      objectReference: {fileID: 0}
    - target: {fileID: -8679921383154817045, guid: f2b0978a2f3a60491903ffe932b2270b,
        type: 3}
      propertyPath: m_LocalEulerAnglesHint.y
      value: 0
      objectReference: {fileID: 0}
    - target: {fileID: -8679921383154817045, guid: f2b0978a2f3a60491903ffe932b2270b,
        type: 3}
      propertyPath: m_LocalEulerAnglesHint.z
      value: 0
      objectReference: {fileID: 0}
    - target: {fileID: -8303857855388924485, guid: f2b0978a2f3a60491903ffe932b2270b,
        type: 3}
      propertyPath: m_Materials.Array.data[0]
      value: 
      objectReference: {fileID: 2100000, guid: c8c933817a0b5684ca632097a04e3b00, type: 2}
    - target: {fileID: -6591543343025729435, guid: f2b0978a2f3a60491903ffe932b2270b,
        type: 3}
      propertyPath: m_Materials.Array.data[0]
      value: 
      objectReference: {fileID: 2100000, guid: c8c933817a0b5684ca632097a04e3b00, type: 2}
    - target: {fileID: -6532055803787292656, guid: f2b0978a2f3a60491903ffe932b2270b,
        type: 3}
      propertyPath: m_Materials.Array.data[0]
      value: 
      objectReference: {fileID: 2100000, guid: c8c933817a0b5684ca632097a04e3b00, type: 2}
    - target: {fileID: -2496566631667355385, guid: f2b0978a2f3a60491903ffe932b2270b,
        type: 3}
      propertyPath: m_IsActive
      value: 1
      objectReference: {fileID: 0}
    - target: {fileID: 22593995514174485, guid: f2b0978a2f3a60491903ffe932b2270b,
        type: 3}
      propertyPath: m_Materials.Array.data[0]
      value: 
      objectReference: {fileID: 2100000, guid: c8c933817a0b5684ca632097a04e3b00, type: 2}
    - target: {fileID: 919132149155446097, guid: f2b0978a2f3a60491903ffe932b2270b,
        type: 3}
      propertyPath: m_Name
      value: Sofa GM Plutone_FBX
      objectReference: {fileID: 0}
    - target: {fileID: 919132149155446097, guid: f2b0978a2f3a60491903ffe932b2270b,
        type: 3}
      propertyPath: m_IsActive
      value: 1
      objectReference: {fileID: 0}
    - target: {fileID: 2148124581136783994, guid: f2b0978a2f3a60491903ffe932b2270b,
        type: 3}
      propertyPath: m_Materials.Array.data[0]
      value: 
      objectReference: {fileID: 2100000, guid: c8c933817a0b5684ca632097a04e3b00, type: 2}
    - target: {fileID: 3973585811788615097, guid: f2b0978a2f3a60491903ffe932b2270b,
        type: 3}
      propertyPath: m_Materials.Array.data[0]
      value: 
      objectReference: {fileID: 2100000, guid: c8c933817a0b5684ca632097a04e3b00, type: 2}
    - target: {fileID: 6073356814390273116, guid: f2b0978a2f3a60491903ffe932b2270b,
        type: 3}
      propertyPath: m_Materials.Array.data[0]
      value: 
      objectReference: {fileID: 2100000, guid: c8c933817a0b5684ca632097a04e3b00, type: 2}
    - target: {fileID: 6876302612199343713, guid: f2b0978a2f3a60491903ffe932b2270b,
        type: 3}
      propertyPath: m_Materials.Array.data[0]
      value: 
      objectReference: {fileID: 2100000, guid: c8c933817a0b5684ca632097a04e3b00, type: 2}
    - target: {fileID: 7815878148207496469, guid: f2b0978a2f3a60491903ffe932b2270b,
        type: 3}
      propertyPath: m_Materials.Array.data[0]
      value: 
      objectReference: {fileID: 2100000, guid: c8c933817a0b5684ca632097a04e3b00, type: 2}
    m_RemovedComponents: []
  m_SourcePrefab: {fileID: 100100000, guid: f2b0978a2f3a60491903ffe932b2270b, type: 3}
--- !u!4 &5917605398064100778 stripped
Transform:
  m_CorrespondingSourceObject: {fileID: -8679921383154817045, guid: f2b0978a2f3a60491903ffe932b2270b,
    type: 3}
  m_PrefabInstance: {fileID: 6166896548672574017}
  m_PrefabAsset: {fileID: 0}
